1392920916.945288	Waiting
1392920916.945585	Recycle
1392920997.052026	Cooldown
1392921892.004129	Waiting
1392921982.097195	Recycle
1392921987.103257	Cooldown
1392922301.504543	Waiting
1392922301.504856	Recycle
1392922676.747860	Waiting
1392922676.748167	Recycle
1392922949.268933	Waiting
1392922949.269230	Recycle
1392923068.840407	Waiting
1392923068.840617	Recycle
1392923153.934156	Cooldown
1392923173.961465	Waiting
1392923347.697631	Waiting
1392923347.697919	Recycle
1392923497.876408	Cooldown
1392923522.902307	Waiting
1393005798.470387	Waiting
1393005879.391944	Waiting
1393005932.658050	Waiting
1393006617.345281	Waiting
1393006617.369815	Recycle
1393007261.113790	Waiting
1393007296.767326	Waiting
1393007296.779225	Recycle
1393007411.818729	Waiting
1393007411.824997	Recycle
1393008683.082393	Cooldown
1393009994.252297	Waiting
1393031989.820405	Waiting
1393032174.478975	Waiting
1393033610.169247	Waiting
1393033700.266430	Recycle
1393035012.371747	Cooldown
1393036324.782407	Waiting
1393261605.949128	Waiting
1393261605.961502	Recycle
1393261657.185499	Waiting
1393261825.428164	Waiting
1393261825.440394	Recycle
1393263387.218639	Cooldown
1393264688.653408	Waiting
1393331857.744951	Recycle
1393333449.938273	Cooldown
1393334751.461672	Waiting
1393377906.439184	Waiting
1393381990.573931	Recycle
1393383532.334813	Cooldown
1393384833.854150	Waiting
1393452124.961489	Recycle
1393453726.708983	Cooldown
1393455023.688460	Waiting
1393467333.696421	Recycle
690.848202	Waiting
901.012228	Recycle
2232.527763	Waiting
3013.311399	Recycle
3318.628517	Cooldown
4194.570747	Waiting
1393527941.419173	Waiting
1393528001.485377	Recycle
1393529247.793410	Cooldown
1393530153.731556	Waiting
1393545359.405571	Waiting
1393547539.662129	Waiting
1393547551.301673	Waiting
1393602457.143264	Waiting
1393602457.157308	Recycle
1393604068.167234	Cooldown
1393604939.937278	Waiting
1394551298.410416	Recycle
1394551335.632060	Recycle
1394551712.778106	Recycle
1394552123.326630	Recycle
<<<<<<< HEAD
1394552490.606147	Recycle
1394558055.997341	Cooldown
1394558088.879372	Cooldown
1394558222.941329	Cooldown
=======
>>>>>>> efef3eff75499f5174c85c811b910aa9f743696d
1394581131.536686	Waiting
1394581297.062496	Waiting
1394581444.416832	Waiting
1394659252.408968	Recycle
1394661015.026959	Cooldown
1394662096.512886	Waiting
1395069679.742855	Recycle
1395071327.633742	Cooldown
1395072529.671666	Waiting
1395243455.322931	Waiting
1395243456.108830	Recycle
1395245052.193519	Recycle
1395245481.117296	Recycle
1395247168.683437	Cooldown
1395248255.174618	Waiting
1395255101.929265	Recycle
