Averaging over 0.1s
Range setting: 0.0dB
0.0	-2.119323e-10	1.079781e-05	1.079163e-05	1.079061e-05	1.079163e-05	1.079369e-05	1.079266e-05	1.079266e-05	1.079369e-05	1.079061e-05	1.079369e-05	9.139276e-06	9.140297e-06	9.139276e-06	9.139276e-06	9.134172e-06	9.134172e-06	9.134172e-06	9.134172e-06	9.134172e-06	9.131109e-06	1.994737e-05	1.994431e-05	1.992926e-05	1.994323e-05	1.993141e-05	1.993463e-05	1.993248e-05	1.992926e-05	1.993033e-05	1.992926e-05
1.0	-1.170738e-09	8.607494e-06	8.605446e-06	8.605446e-06	8.605446e-06	8.608513e-06	8.605446e-06	8.605446e-06	8.605446e-06	8.605446e-06	8.606477e-06	7.284244e-06	7.282064e-06	7.284244e-06	7.283075e-06	7.283075e-06	7.282064e-06	7.281052e-06	7.282064e-06	7.283075e-06	7.283075e-06	1.589523e-05	1.589101e-05	1.589734e-05	1.588758e-05	1.590578e-05	1.589312e-05	1.588864e-05	1.588758e-05	1.589839e-05	1.589418e-05
2.0	-1.170738e-09	6.841077e-06	6.841077e-06	6.839058e-06	6.841077e-06	6.83704e-06	6.840067e-06	6.840067e-06	6.840067e-06	6.83704e-06	6.839058e-06	5.788751e-06	5.787747e-06	5.790759e-06	5.788751e-06	5.788751e-06	5.789755e-06	5.787747e-06	5.786743e-06	5.787747e-06	5.786743e-06	1.263461e-05	1.263668e-05	1.262838e-05	1.263357e-05	1.263668e-05	1.262838e-05	1.263149e-05	1.262526e-05	1.262941e-05	1.263045e-05
3.0	-2.119323e-10	5.437185e-06	5.434178e-06	5.43518e-06	5.43518e-06	5.434178e-06	5.434178e-06	5.434178e-06	5.434178e-06	5.437185e-06	5.434178e-06	4.59995e-06	4.59995e-06	4.59995e-06	4.598951e-06	4.59995e-06	4.600948e-06	4.59995e-06	4.59995e-06	4.601946e-06	4.601946e-06	1.004179e-05	1.003988e-05	1.003886e-05	1.004384e-05	1.003988e-05	1.003783e-05	1.003783e-05	1.004179e-05	1.004281e-05	1.003988e-05
4.0	-2.119323e-10	4.326031e-06	4.324551e-06	4.323554e-06	4.324551e-06	4.324551e-06	4.323554e-06	4.325034e-06	4.326031e-06	4.325034e-06	4.325034e-06	3.660663e-06	3.660663e-06	3.659669e-06	3.660663e-06	3.66265e-06	3.660663e-06	3.660663e-06	3.660663e-06	3.660663e-06	3.661656e-06	7.990142e-06	7.988112e-06	7.988112e-06	7.986082e-06	7.989127e-06	7.989127e-06	7.989127e-06	7.990142e-06	7.987097e-06	7.988112e-06
5.0	-2.119323e-10	3.428028e-06	3.428028e-06	3.428028e-06	3.428028e-06	3.427036e-06	3.428028e-06	3.426044e-06	3.428028e-06	3.428028e-06	3.426044e-06	2.900651e-06	2.90362e-06	2.901641e-06	2.902631e-06	2.901641e-06	2.902631e-06	2.901641e-06	2.901641e-06	2.901641e-06	2.900651e-06	6.330651e-06	6.331658e-06	6.334678e-06	6.330651e-06	6.331658e-06	6.333672e-06	6.327631e-06	6.331658e-06	6.333672e-06	6.332665e-06
6.0	-1.170738e-09	2.725312e-06	2.725312e-06	2.724324e-06	2.725312e-06	2.726301e-06	2.725312e-06	2.725312e-06	2.725312e-06	2.724324e-06	2.724324e-06	2.307375e-06	2.305401e-06	2.307375e-06	2.306388e-06	2.306388e-06	2.306388e-06	2.307375e-06	2.304415e-06	2.306388e-06	2.305401e-06	5.034766e-06	5.032765e-06	5.034766e-06	5.031765e-06	5.033766e-06	5.033766e-06	5.032765e-06	5.032765e-06	5.032765e-06	5.035767e-06
