Averaging over 0.1s
Range setting: 0.0dB
0.0	5.794688e-10	1.102587e-05	1.102768e-05	1.102871e-05	8.646015e-06	8.651115e-06	8.650096e-06	1.895796e-05	1.915646e-05	1.920664e-05
0.5	5.794688e-10	9.873586e-06	9.870512e-06	9.866415e-06	7.742413e-06	7.745454e-06	7.742413e-06	1.838483e-05	1.828664e-05	1.80337e-05
1.0	-3.956224e-10	8.796788e-06	8.79475e-06	8.793731e-06	6.904088e-06	6.89985e-06	6.90086e-06	1.522902e-05	1.616926e-05	1.564958e-05
1.5	5.794688e-10	7.847371e-06	7.8494e-06	7.845343e-06	6.158215e-06	6.156202e-06	6.157208e-06	1.446387e-05	1.422466e-05	1.392912e-05
2.0	-3.956224e-10	6.992721e-06	6.988491e-06	6.990511e-06	5.484833e-06	5.484833e-06	5.484833e-06	1.219926e-05	1.191515e-05	1.233476e-05
2.5	-3.956224e-10	6.236795e-06	6.235789e-06	6.235789e-06	4.893112e-06	4.893112e-06	4.892112e-06	1.17693e-05	1.143417e-05	1.122835e-05
3.0	-3.956224e-10	5.31292e-06	5.310542e-06	5.311918e-06	4.17196e-06	4.17196e-06	4.170964e-06	9.295981e-06	9.495649e-06	9.307155e-06
3.5	5.794688e-10	4.742224e-06	4.739227e-06	4.738229e-06	3.724732e-06	3.722745e-06	3.719764e-06	8.379097e-06	8.621566e-06	8.783548e-06
4.0	5.794688e-10	4.220767e-06	4.222759e-06	4.221763e-06	3.315381e-06	3.317365e-06	3.316373e-06	7.410284e-06	7.41737e-06	7.38686e-06
4.5	-1.354428e-09	3.767567e-06	3.767567e-06	3.766573e-06	2.958793e-06	2.95618e-06	2.957803e-06	6.942656e-06	6.369249e-06	6.79607e-06
