 0.2446235	-0.0006675	0	0
 0.2645886	-0.0006399	11	0
 0.2842072	-0.0006194	3817	0
 0.3039551	-0.0006050	95053	286
 0.3238093	-0.0005900	298315	36321
 0.3440067	-0.0005424	452189	317269
 0.3646494	-0.0005773	576515	566442
 0.3844517	-0.0005601	666767	666511
 0.4043900	-0.0005498	734297	732062
 0.4245313	-0.0005366	788017	769756
 0.4443402	-0.0005227	842276	796867
 0.4644077	-0.0005182	849798	814654
 0.4862484	 0.4098425	0	0
 0.5063759	 0.4333031	0	0
 0.5262220	 0.4513047	0	0
 0.5460899	 0.4691885	0	0
 0.5660922	 0.4870372	0	0
