 0.1462045	-0.0009280	0	0
 0.1558833	-0.0009400	0	0
 0.1657926	-0.0009349	0	0
 0.1756077	-0.0009285	0	0
 0.1858026	-0.0009238	0	0
 0.1956375	-0.0009196	0	0
 0.2055436	-0.0009080	0	0
 0.2154005	-0.0009055	1	0
 0.2264460	 0.1887803	0	0
 0.2362960	 0.2004223	0	0
 0.2462186	 0.2093837	0	0
