-0.0022104	-0.0007870	0	0
 0.0076822	-0.0007870	0	0
 0.0174709	-0.0008233	0	0
 0.0274987	-0.0007692	0	0
 0.0374784	-0.0007631	0	0
 0.0473696	-0.0007646	0	0
 0.0571371	-0.0007585	0	0
 0.0671381	-0.0007535	0	0
 0.0769272	-0.0007506	0	0
 0.0869682	-0.0007461	0	0
 0.0967887	-0.0007407	0	0
 0.1067876	-0.0007335	0	0
 0.1165987	-0.0007296	0	0
 0.1264946	-0.0007297	0	0
 0.1364732	-0.0007219	0	0
 0.1464245	-0.0007145	0	0
 0.1562487	-0.0007113	0	0
 0.1661101	-0.0007095	0	0
 0.1759658	-0.0007012	0	0
 0.1861300	-0.0006982	0	0
 0.1959341	-0.0006864	0	0
 0.2058280	-0.0006881	0	0
 0.2155794	-0.0006798	0	0
 0.2257423	-0.0006742	0	0
 0.2355265	-0.0006704	0	0
 0.2453926	-0.0006616	0	0
 0.2551920	-0.0006602	0	0
 0.2652592	-0.0006540	5	0
 0.2752107	-0.0006503	7	0
 0.2850971	-0.0006470	9	1
 0.2949176	-0.0006400	21	3
 0.3049009	-0.0006303	22	7
 0.3146571	-0.0006271	22	11
 0.3246936	-0.0006197	17	12
 0.3345278	-0.0006426	25	24
 0.3445536	-0.0006123	24	24
 0.3543519	-0.0006041	38	38
 0.3642324	-0.0005998	29	29
 0.3742435	-0.0005921	27	27
 0.3841888	-0.0005856	33	32
 0.3941569	-0.0005821	30	28
 0.4040253	-0.0005778	37	35
 0.4138944	-0.0005751	36	34
 0.4240582	-0.0005660	29	31
 0.4338472	-0.0005604	53	54
 0.4437009	-0.0005575	36	37
 0.4535086	-0.0005477	47	50
 0.4636605	-0.0005438	35	39
 0.4734791	-0.0005399	46	48
 0.4832942	-0.0005357	55	58
 0.4931936	-0.0005686	45	45
 0.5032330	-0.0005240	50	50
 0.5131424	-0.0005175	61	61
 0.5229790	-0.0005120	58	58
 0.5328573	-0.0005049	35	35
 0.5428055	-0.0005007	57	57
 0.5526042	-0.0004997	60	60
 0.5626033	-0.0004875	49	49
 0.5725024	-0.0004829	67	67
 0.5825204	-0.0004820	54	54
 0.5922911	-0.0004789	64	63
 0.6021645	-0.0004706	74	74
 0.6121641	-0.0004675	62	62
 0.6221065	-0.0004623	72	72
 0.6319369	-0.0004544	68	68
 0.6417634	-0.0004505	61	61
 0.6518062	-0.0004604	61	61
 0.6617939	-0.0004373	66	66
 0.6716369	-0.0004321	74	74
 0.6814726	-0.0004259	72	72
 0.6943552	 0.6097431	58	57
