 0.1866087	-0.0010236	0	0
 0.1964928	-0.0010134	0	0
 0.2063171	-0.0010122	0	0
 0.2164392	-0.0010043	0	0
 0.2262370	-0.0010035	0	0
 0.2361249	-0.0010048	0	0
 0.2459727	-0.0009673	0	0
 0.2559651	-0.0009600	0	0
 0.2659077	-0.0009521	0	0
 0.2757703	-0.0009946	0	0
 0.2855994	-0.0009520	3	0
 0.2955635	-0.0009416	4	0
 0.3053922	-0.0009350	8	0
 0.3153546	-0.0009325	7	3
 0.3252609	-0.0009220	17	5
 0.3352734	-0.0009149	24	18
 0.3450405	-0.0009138	40	38
 0.3549368	-0.0009128	37	35
 0.3649543	-0.0009078	65	65
 0.3748774	-0.0009017	80	80
 0.3848673	-0.0008939	110	110
 0.3946999	-0.0008956	129	128
 0.4051667	-0.0009248	169	166
 0.4153405	-0.0009319	207	201
 0.4251437	-0.0009303	264	238
 0.4350541	-0.0009256	282	263
 0.4448800	-0.0009186	320	305
 0.4550365	-0.0009165	342	342
 0.4648172	-0.0009069	372	384
 0.4746899	-0.0009034	385	401
 0.4845475	-0.0008989	397	421
 0.4966382	 0.4191694	0	0
 0.5066137	 0.4279552	0	0
 0.5165077	 0.4366602	0	0
 0.5264605	 0.4453733	0	0
 0.5364663	 0.4604377	0	0
 0.5463191	 0.4693028	0	0
